Engine/Binaries/Win64/UE4Game.exe	2021-08-10T16:58:35.842Z
Engine/Binaries/Win64/turbojpeg.dll	2021-08-10T16:57:39.962Z
Engine/Extras/Redist/en-us/UE4PrereqSetup_x64.exe	2021-08-10T17:02:36.098Z
Engine/Binaries/ThirdParty/Oculus/OVRPlugin/OVRPlugin/Win64/OVRPlugin.dll	2021-08-10T16:56:04.530Z
Engine/Binaries/ThirdParty/DbgHelp/dbghelp.dll	2021-08-10T16:55:54.035Z
Engine/Binaries/ThirdParty/PhysX3/Win64/VS2015/PxFoundationPROFILE_x64.dll	2021-08-10T16:56:24.950Z
Engine/Binaries/ThirdParty/PhysX3/Win64/VS2015/PxPvdSDKPROFILE_x64.dll	2021-08-10T16:56:24.983Z
Engine/Binaries/ThirdParty/PhysX3/Win64/VS2015/PhysX3PROFILE_x64.dll	2021-08-10T16:56:23.988Z
Engine/Binaries/ThirdParty/PhysX3/Win64/VS2015/PhysX3CookingPROFILE_x64.dll	2021-08-10T16:56:23.809Z
Engine/Binaries/ThirdParty/PhysX3/Win64/VS2015/PhysX3CommonPROFILE_x64.dll	2021-08-10T16:56:23.715Z
Engine/Binaries/ThirdParty/PhysX3/Win64/VS2015/APEX_ClothingPROFILE_x64.dll	2021-08-10T16:56:18.553Z
Engine/Binaries/ThirdParty/PhysX3/Win64/VS2015/APEX_LegacyPROFILE_x64.dll	2021-08-10T16:56:20.377Z
Engine/Binaries/ThirdParty/PhysX3/Win64/VS2015/ApexFrameworkPROFILE_x64.dll	2021-08-10T16:56:21.369Z
Engine/Binaries/ThirdParty/PhysX3/Win64/VS2015/NvClothPROFILE_x64.dll	2021-08-10T16:56:21.592Z
Engine/Binaries/ThirdParty/Ogg/Win64/VS2015/libogg_64.dll	2021-08-10T16:56:04.547Z
Engine/Binaries/ThirdParty/Vorbis/Win64/VS2015/libvorbis_64.dll	2021-08-10T16:56:59.374Z
Engine/Binaries/ThirdParty/Vorbis/Win64/VS2015/libvorbisfile_64.dll	2021-08-10T16:56:59.375Z
Engine/Binaries/ThirdParty/NVIDIA/NVaftermath/Win64/GFSDK_Aftermath_Lib.x64.dll	2021-08-10T16:56:03.799Z
Engine/Binaries/ThirdParty/OpenVR/OpenVRv1_5_17/Win64/openvr_api.dll	2021-08-10T16:56:05.478Z
Engine/Binaries/ThirdParty/Windows/WinPixEventRuntime/x64/WinPixEventRuntime.dll	2021-08-10T16:56:59.762Z
Engine/Binaries/ThirdParty/Windows/XAudio2_9/x64/xaudio2_9redist.dll	2021-08-10T16:57:00.513Z
popal.exe	2021-08-31T14:49:10.897Z
